…
Core commands: spread() & gather()
========================================================
Maybe we want to compare Miami and Roanoke temps each day:

```r
dataWide <- myData %>%
  select(-PRCP) %>%
  filter(City %in% c('Roanoke', 'Miami')) %>%
  spread(City, TAVG) 

dataWide
```

```
# A tibble: 430 x 3
   DATE       Miami Roanoke
   <date>     <int>   <int>
 1 2017-01-01    76      46
 2 2017-01-02    80      47
 3 2017-01-03    80      44
 4 2017-01-04    76      51
 5 2017-01-05    74      34
 6 2017-01-06    72      31
 7 2017-01-07    78      24
 8 2017-01-08    59      16
 9 2017-01-09    61      16
10 2017-01-10    70      26
# ... with 420 more rows
```
…
